[
    { "tytul": "Wiedzmin 3",  "gatunek": "RPG", "ocena": "10", "studio": "CD PROJECT RED" },
    { "tytul": "Mass Effect:  Andromeda",  "gatunek": "RPG", "ocena": "9", "studio": "Bioware" },
    { "tytul": "Battlefield 3",  "gatunek": "FPS", "ocena": "7", "studio": "Dice" },
    { "tytul": "Alan Wake",  "gatunek": "Przygodowa, Akcja", "ocena": "7", "studio": "Remedy" },

    { "tytul": "The Wolf Amoung Us",  "gatunek": "Przygodowa", "ocena": "8", "studio": "Telltale Games" }
]
